%YAML 1.1
%TAG !u! tag:unity3d.com,2011:
--- !u!1001 &100100000
Prefab:
  m_ObjectHideFlags: 1
  serializedVersion: 2
  m_Modification:
    m_TransformParent: {fileID: 0}
    m_Modifications: []
    m_RemovedComponents: []
  m_ParentPrefab: {fileID: 0}
  m_RootGameObject: {fileID: 1677482822257062}
  m_IsPrefabParent: 1
--- !u!1 &1677482822257062
GameObject:
  m_ObjectHideFlags: 0
  m_PrefabParentObject: {fileID: 0}
  m_PrefabInternal: {fileID: 100100000}
  serializedVersion: 5
  m_Component:
  - component: {fileID: 224939778005602446}
  - component: {fileID: 114412506138754968}
  m_Layer: 5
  m_Name: CharaView
  m_TagString: CharaView
  m_Icon: {fileID: 0}
  m_NavMeshLayer: 0
  m_StaticEditorFlags: 0
  m_IsActive: 1
--- !u!114 &114412506138754968
MonoBehaviour:
  m_ObjectHideFlags: 1
  m_PrefabParentObject: {fileID: 0}
  m_PrefabInternal: {fileID: 100100000}
  m_GameObject: {fileID: 1677482822257062}
  m_Enabled: 1
  m_EditorHideFlags: 0
  m_Script: {fileID: 11500000, guid: 84a847cfe717ad549be25a6c72617668, type: 3}
  m_Name: 
  m_EditorClassIdentifier: 
  comname: 2
  Characters:
  - {fileID: 1758389247368480, guid: 391585b0d6d646046b1bd4e86e0654de, type: 2}
  - {fileID: 1213512643655212, guid: 1dbe3ea48ca639946bd1d00cfcef3f95, type: 2}
  - {fileID: 1459341711144094, guid: 9294c1efb4ee9694290a9eb055afa95e, type: 2}
  - {fileID: 1216448920618112, guid: 21bfb5ee8e909cd478499b67da8ee58c, type: 2}
  - {fileID: 1758389247368480, guid: 68475ab8f43f1fa4eb4a66543a7c6ed6, type: 2}
  - {fileID: 1758389247368480, guid: 6c908a5b26f03584cb61aad43764e667, type: 2}
  - {fileID: 1758389247368480, guid: cd45efee4a549914ea05a32e8d85747f, type: 2}
  - {fileID: 0}
  - {fileID: 0}
  - {fileID: 0}
  - {fileID: 0}
  - {fileID: 0}
  - {fileID: 0}
  - {fileID: 0}
  - {fileID: 0}
  fo: {fileID: 0}
  mc: {fileID: 0}
  id: 0
--- !u!224 &224939778005602446
RectTransform:
  m_ObjectHideFlags: 1
  m_PrefabParentObject: {fileID: 0}
  m_PrefabInternal: {fileID: 100100000}
  m_GameObject: {fileID: 1677482822257062}
  m_LocalRotation: {x: 0, y: 0, z: 0, w: 1}
  m_LocalPosition: {x: 0, y: 0, z: 0}
  m_LocalScale: {x: 1, y: 1, z: 1}
  m_Children: []
  m_Father: {fileID: 0}
  m_RootOrder: 0
  m_LocalEulerAnglesHint: {x: 0, y: 0, z: 0}
  m_AnchorMin: {x: 0, y: 0}
  m_AnchorMax: {x: 1, y: 1}
  m_AnchoredPosition: {x: 0, y: 0}
  m_SizeDelta: {x: 0, y: 0}
  m_Pivot: {x: 0.5, y: 0.5}
