%YAML 1.1
%TAG !u! tag:unity3d.com,2011:
--- !u!114 &11400000
MonoBehaviour:
  m_ObjectHideFlags: 0
  m_PrefabParentObject: {fileID: 0}
  m_PrefabInternal: {fileID: 0}
  m_GameObject: {fileID: 0}
  m_Enabled: 1
  m_EditorHideFlags: 0
  m_Script: {fileID: 11500000, guid: ae0543fe805424df99fe08ce744cbe49, type: 3}
  m_Name: Default
  m_EditorClassIdentifier: 
  m_PoseEntries:
  - path: Bones/Ctrl
    localPosition: {x: 0.84482634, y: 1.8432579, z: 0}
    localRotation: {x: 0, y: 0, z: 0, w: 1}
    localScale: {x: 1, y: 1, z: 1}
  - path: Bones/Ctrl/Body_0
    localPosition: {x: 0.027724266, y: -1.5669502, z: 0}
    localRotation: {x: 0, y: 0, z: 0.7071068, w: 0.7071068}
    localScale: {x: 1.4876908, y: 1.4876919, z: 1.4876914}
  - path: Bones/Ctrl/Body_0/Body_1
    localPosition: {x: 1.0000002, y: 0, z: 0}
    localRotation: {x: 0, y: 0, z: 0, w: 1}
    localScale: {x: 0.40333897, y: 0.40333915, z: 0.40333915}
  - path: Bones/Ctrl/Body_0/Body_1/Body_2
    localPosition: {x: 1.0000004, y: 0, z: 0}
    localRotation: {x: 0, y: 0, z: 0, w: 1}
    localScale: {x: 2.474088, y: 2.4740884, z: 2.4740884}
  - path: Bones/Ctrl/Body_0/Body_1/Body_2/Breast_L_0
    localPosition: {x: 0.22114384, y: -0.26386064, z: 0}
    localRotation: {x: 0, y: 0, z: -0.33878696, w: 0.94086313}
    localScale: {x: 0.19265212, y: 0.19265208, z: 0.19265202}
  - path: Bones/Ctrl/Body_0/Body_1/Body_2/Breast_L_0/Breast_L_1
    localPosition: {x: 1.0000005, y: 0.00000010420249, z: 0}
    localRotation: {x: 0, y: 0, z: 0.28472665, w: 0.9586088}
    localScale: {x: 0.6543704, y: 0.6543704, z: 0.6543704}
  - path: Bones/Ctrl/Body_0/Body_1/Body_2/Breast_L_0/Breast_L_1/Breast_L_2
    localPosition: {x: 0.99999964, y: -0.0000003131116, z: 0}
    localRotation: {x: 0, y: 0, z: 0.22710812, w: 0.9738696}
    localScale: {x: 1.1340764, y: 1.1340762, z: 1.1340762}
  - path: Bones/Ctrl/Body_0/Body_1/Body_2/Breast_R_0
    localPosition: {x: 0.22114384, y: 0.2856099, z: 0}
    localRotation: {x: 0, y: 0, z: 0.433267, w: 0.9012656}
    localScale: {x: 0.1926494, y: 0.19264945, z: 0.19264938}
  - path: Bones/Ctrl/Body_0/Body_1/Body_2/Breast_R_0/Breast_R_1
    localPosition: {x: 1.0000005, y: 0.00000010420249, z: 0}
    localRotation: {x: 0, y: 0, z: -0.3909679, w: 0.9204044}
    localScale: {x: 0.6543704, y: 0.6543704, z: 0.6543704}
  - path: Bones/Ctrl/Body_0/Body_1/Body_2/Breast_R_0/Breast_R_1/Breast_R_2
    localPosition: {x: 0.99999964, y: -0.0000003131116, z: 0}
    localRotation: {x: 0, y: 0, z: -0.22724627, w: 0.9738374}
    localScale: {x: 1.1340764, y: 1.1340762, z: 1.1340762}
  - path: Bones/Ctrl/Body_0/Body_1/Body_2/Neck
    localPosition: {x: 1.000037, y: 0, z: 0}
    localRotation: {x: 0, y: 0, z: 0, w: 1}
    localScale: {x: 0.24786907, y: 0.24786924, z: 0.24786924}
  - path: Bones/Ctrl/Body_0/Body_1/Body_2/Neck/Face
    localPosition: {x: 1.0000026, y: 0, z: 0}
    localRotation: {x: 0, y: 0, z: 0, w: 1}
    localScale: {x: 3.8720055, y: 3.872006, z: 3.872006}
  - path: Bones/Ctrl/Body_0/Body_1/Body_2/Neck/Face/Hair
    localPosition: {x: 0.9126714, y: -0.058501802, z: 0}
    localRotation: {x: -0, y: -0, z: -0, w: 1}
    localScale: {x: 0.17108703, y: 0.17108668, z: 0.17108665}
  - path: Bones/Ctrl/Body_0/Body_1/Body_2/Neck/Face/Hair/Hair_S_L_0
    localPosition: {x: -1.9090416, y: -2.207331, z: 0}
    localRotation: {x: 0, y: 0, z: -0.999046, w: 0.043670148}
    localScale: {x: 4.1023, y: 4.1023, z: 4.102295}
  - path: Bones/Ctrl/Body_0/Body_1/Body_2/Neck/Face/Hair/Hair_S_L_0/Hair_S_L_1
    localPosition: {x: 1.0000002, y: -0.000000059604645, z: 0}
    localRotation: {x: 0, y: 0, z: 0.0515145, w: 0.99867225}
    localScale: {x: 0.61857116, y: 0.6185711, z: 0.6185711}
  - path: Bones/Ctrl/Body_0/Body_1/Body_2/Neck/Face/Hair/Hair_S_L_0/Hair_S_L_1/Hair_S_L_2
    localPosition: {x: 0.99999994, y: 0.0000000013174029, z: 0}
    localRotation: {x: 0, y: 0, z: 0.058838703, w: 0.99826753}
    localScale: {x: 1.1173906, y: 1.1173908, z: 1.1173908}
  - path: Bones/Ctrl/Body_0/Body_1/Body_2/Neck/Face/Hair/Hair_S_R_0
    localPosition: {x: -2.0880134, y: 2.98288, z: 0}
    localRotation: {x: 0, y: 0, z: -0.99904823, w: -0.043619413}
    localScale: {x: 4.102302, y: 4.1023016, z: 4.102295}
  - path: Bones/Ctrl/Body_0/Body_1/Body_2/Neck/Face/Hair/Hair_S_R_0/Hair_S_R_1
    localPosition: {x: 1.0000002, y: -0.000000059604645, z: 0}
    localRotation: {x: 0, y: 0, z: -0.05151684, w: 0.9986721}
    localScale: {x: 0.61857116, y: 0.6185711, z: 0.6185711}
  - path: Bones/Ctrl/Body_0/Body_1/Body_2/Neck/Face/Hair/Hair_S_R_0/Hair_S_R_1/Hair_S_R_2
    localPosition: {x: 0.99999994, y: 0.0000000013174029, z: 0}
    localRotation: {x: 0, y: 0, z: -0.058835886, w: 0.9982677}
    localScale: {x: 1.1173906, y: 1.1173908, z: 1.1173908}
  - path: Bones/Ctrl/Body_0/Body_1/Body_2/Neck/Face/Hair/Hair_B_L_0
    localPosition: {x: -3.4004848, y: -2.207332, z: 0}
    localRotation: {x: -0, y: -0, z: -0.9659259, w: 0.25881904}
    localScale: {x: 1.2913231, y: 1.2913227, z: 1.291323}
  - path: Bones/Ctrl/Body_0/Body_1/Body_2/Neck/Face/Hair/Hair_B_L_1
    localPosition: {x: -4.4146647, y: -1.0141788, z: 0}
    localRotation: {x: -0, y: -0, z: -0.9953294, w: 0.09653784}
    localScale: {x: 1.893034, y: 1.893034, z: 1.8930337}
  - path: Bones/Ctrl/Body_0/Body_1/Body_2/Neck/Face/Hair/Hair_B_R_0
    localPosition: {x: -3.4004886, y: 3.1021962, z: 0}
    localRotation: {x: -0, y: -0, z: -0.9659258, w: -0.2588191}
    localScale: {x: 1.2913198, y: 1.2913198, z: 1.2913202}
  - path: Bones/Ctrl/Body_0/Body_1/Body_2/Neck/Face/Hair/Hair_B_R_1
    localPosition: {x: -4.3550076, y: 1.49144, z: 0}
    localRotation: {x: -0, y: -0, z: -0.9961947, w: -0.08715572}
    localScale: {x: 1.8930461, y: 1.8930461, z: 1.8930448}
  - path: Bones/Ctrl/Body_0/Body_1/Body_2/Neck/Face/Hair/Hair_L_0
    localPosition: {x: 0.9545184, y: -0.41760162, z: 0}
    localRotation: {x: 0, y: 0, z: -0.9238795, w: 0.38268346}
    localScale: {x: 1.2887324, y: 1.2887325, z: 1.2887328}
  - path: Bones/Ctrl/Body_0/Body_1/Body_2/Neck/Face/Hair/Hair_L_0/Hair_L_1
    localPosition: {x: 1.000001, y: -0.0000008063675, z: 0}
    localRotation: {x: 0, y: 0, z: 0, w: 1}
    localScale: {x: 1, y: 1, z: 1}
  - path: Bones/Ctrl/Body_0/Body_1/Body_2/Neck/Face/Hair/Hair_L_0/Hair_L_1/Hair_L_2
    localPosition: {x: 1, y: 0.00000023716694, z: 0}
    localRotation: {x: 0, y: 0, z: 0.093099385, w: 0.9956569}
    localScale: {x: 1.2947872, y: 1.2947873, z: 1.2947873}
  - path: Bones/Ctrl/Body_0/Body_1/Body_2/Neck/Face/Hair/Hair_R_0
    localPosition: {x: 1.0141749, y: 2.0283594, z: 0}
    localRotation: {x: 0, y: 0, z: -0.950764, w: -0.30991584}
    localScale: {x: 1.5409073, y: 1.5409069, z: 1.5409069}
  - path: Bones/Ctrl/Body_0/Body_1/Body_2/Neck/Face/Hair/Hair_R_0/Hair_R_1
    localPosition: {x: 1.0000002, y: 0.000000079341525, z: 0}
    localRotation: {x: 0, y: 0, z: 0.20981836, w: 0.9777404}
    localScale: {x: 0.81527865, y: 0.81527865, z: 0.81527865}
  - path: Bones/Ctrl/Body_0/Body_1/Body_2/Neck/Face/Hair/Hair_R_0/Hair_R_1/Hair_R_2
    localPosition: {x: 1.0000001, y: -0.00000035183962, z: 0}
    localRotation: {x: 0, y: 0, z: 0.12081489, w: 0.9926751}
    localScale: {x: 1, y: 1, z: 1}
  - path: Bones/Ctrl/Body_0/Body_1/Body_2/Neck/Face/Hair/Hair_C_0
    localPosition: {x: 1.7300702, y: 1.1931525, z: 0}
    localRotation: {x: 0, y: 0, z: -0.9848078, w: 0.17364827}
    localScale: {x: 1.5287669, y: 1.5287666, z: 1.528767}
  - path: Bones/Ctrl/Body_0/Body_1/Body_2/Neck/Face/Hair/Hair_C_0/Hair_C_1
    localPosition: {x: 1.0000004, y: 0, z: 0}
    localRotation: {x: 0, y: 0, z: 0, w: 1}
    localScale: {x: 1, y: 1, z: 1}
  - path: Bones/Ctrl/Body_0/Body_1/Body_2/Neck/Face/Hair/Hair_C_0/Hair_C_1/Hair_C_2
    localPosition: {x: 1.0000004, y: 0, z: 0}
    localRotation: {x: 0, y: 0, z: 0, w: 1}
    localScale: {x: 1, y: 1, z: 1}
  - path: Bones/Ctrl/Body_0/Body_1/Body_2/Neck/Face/Eye_L
    localPosition: {x: 0.41253886, y: -0.25242996, z: 0}
    localRotation: {x: -0, y: -0, z: -0, w: 1}
    localScale: {x: 0.14842482, y: 0.14842452, z: 0.14842448}
  - path: Bones/Ctrl/Body_0/Body_1/Body_2/Neck/Face/Eye_R
    localPosition: {x: 0.42274547, y: 0.24769476, z: 0}
    localRotation: {x: -0, y: -0, z: -0, w: 1}
    localScale: {x: 0.1484272, y: 0.1484269, z: 0.14842677}
  - path: Bones/Ctrl/Body_0/Body_1/Body_2/Neck/Face/Ear_L
    localPosition: {x: 0.56564516, y: -0.40552673, z: 0}
    localRotation: {x: -0, y: -0, z: -0.610221, w: 0.79223126}
    localScale: {x: 0.41042474, y: 0.41042545, z: 0.41042474}
  - path: Bones/Ctrl/Body_0/Body_1/Body_2/Neck/Face/Ear_R
    localPosition: {x: 0.545232, y: 0.35996985, z: 0}
    localRotation: {x: -0, y: -0, z: 0.603083, w: 0.7976784}
    localScale: {x: 0.49279097, y: 0.49279177, z: 0.49279088}
  - path: Bones/Ctrl/Body_0/Body_1/Body_2/Neck/Face/Slash_L
    localPosition: {x: 0.637085, y: -0.11974353, z: 0}
    localRotation: {x: -0, y: -0, z: -0.61103994, w: 0.7915998}
    localScale: {x: 0.16697785, y: 0.16697814, z: 0.16697785}
  - path: Bones/Ctrl/Body_0/Body_1/Body_2/Neck/Face/Slash_R
    localPosition: {x: 0.637085, y: 0.12521534, z: 0}
    localRotation: {x: -0, y: -0, z: 0.58181363, w: 0.8133222}
    localScale: {x: 0.16697663, y: 0.16697691, z: 0.16697662}
  - path: Bones/Ctrl/Body_0/Body_1/Body_2/Neck/Face/Mouse
    localPosition: {x: 0.13650568, y: 0.00373388, z: 0}
    localRotation: {x: -0, y: -0, z: -0, w: 1}
    localScale: {x: 0.12235499, y: 0.122354716, z: 0.1223547}
  - path: Bones/Ctrl/Body_0/Body_1/Body_2/Neck/Wing_L_0
    localPosition: {x: -0.16897753, y: -2.0444036, z: 0}
    localRotation: {x: 0, y: 0, z: -0.7986113, w: 0.6018472}
    localScale: {x: 4.8459826, y: 4.8459926, z: 4.845984}
  - path: Bones/Ctrl/Body_0/Body_1/Body_2/Neck/Wing_L_0/Wing_L_1
    localPosition: {x: 1.0000001, y: 0.000000047004526, z: 0}
    localRotation: {x: 0, y: 0, z: 0.41725993, w: 0.9087872}
    localScale: {x: 1.38982, y: 1.3898202, z: 1.3898202}
  - path: Bones/Ctrl/Body_0/Body_1/Body_2/Neck/Wing_L_0/Wing_L_1/Hand_L
    localPosition: {x: 1.0000005, y: 0.00000030020607, z: 0}
    localRotation: {x: 0, y: 0, z: -0.7071081, w: 0.7071055}
    localScale: {x: 1, y: 1, z: 1}
  - path: Bones/Ctrl/Body_0/Body_1/Body_2/Neck/Wing_L_0/Wing_L_1/Hand_L/Feather_L_0
    localPosition: {x: 1.2398798, y: 0.019449472, z: 0}
    localRotation: {x: 0, y: 0, z: -0.1364192, w: 0.99065125}
    localScale: {x: 0.40349692, y: 0.40349635, z: 0.4034952}
  - path: Bones/Ctrl/Body_0/Body_1/Body_2/Neck/Wing_L_0/Wing_L_1/Hand_L/Feather_L_0/Feather_L_1
    localPosition: {x: 1.0000002, y: 0.00000023841858, z: 0}
    localRotation: {x: 0, y: 0, z: -0.032062408, w: 0.99948597}
    localScale: {x: 0.8002516, y: 0.8002516, z: 0.8002516}
  - path: Bones/Ctrl/Body_0/Body_1/Body_2/Neck/Wing_L_0/Wing_L_1/Hand_L/Feather_L_0/Feather_L_1/Feather_L_2
    localPosition: {x: 1.0000005, y: -0.00000020505385, z: 0}
    localRotation: {x: 0, y: 0, z: 0, w: 1}
    localScale: {x: 1, y: 1, z: 1}
  - path: Bones/Ctrl/Body_0/Body_1/Body_2/Neck/Wing_R_0
    localPosition: {x: -0.24801777, y: 2.1052084, z: 0}
    localRotation: {x: 0, y: 0, z: 0.7933531, w: 0.60876185}
    localScale: {x: 4.84598, y: 4.8459888, z: 4.845978}
  - path: Bones/Ctrl/Body_0/Body_1/Body_2/Neck/Wing_R_0/Wing_R_1
    localPosition: {x: 1.0000001, y: 0.000000047004526, z: 0}
    localRotation: {x: 0, y: 0, z: -0.41725573, w: 0.9087891}
    localScale: {x: 1.38982, y: 1.3898202, z: 1.3898202}
  - path: Bones/Ctrl/Body_0/Body_1/Body_2/Neck/Wing_R_0/Wing_R_1/Hand_R
    localPosition: {x: 1.0000012, y: 0.0000002358762, z: 0}
    localRotation: {x: 0, y: 0, z: 0.70710695, w: 0.70710665}
    localScale: {x: 1, y: 1, z: 1}
  - path: Bones/Ctrl/Body_0/Body_1/Body_2/Neck/Wing_R_0/Wing_R_1/Hand_R/Feather_R_0
    localPosition: {x: 1.2112356, y: -0.017787576, z: 0}
    localRotation: {x: 0, y: 0, z: 0.14780942, w: 0.9890159}
    localScale: {x: 0.40349627, y: 0.40349627, z: 0.4034956}
  - path: Bones/Ctrl/Body_0/Body_1/Body_2/Neck/Wing_R_0/Wing_R_1/Hand_R/Feather_R_0/Feather_R_1
    localPosition: {x: 1.0000002, y: 0.00000023841858, z: 0}
    localRotation: {x: 0, y: 0, z: 0.03206494, w: 0.99948585}
    localScale: {x: 0.8002516, y: 0.8002516, z: 0.8002516}
  - path: Bones/Ctrl/Body_0/Body_1/Body_2/Neck/Wing_R_0/Wing_R_1/Hand_R/Feather_R_0/Feather_R_1/Feather_R_2
    localPosition: {x: 1.0000005, y: -0.00000020505385, z: 0}
    localRotation: {x: 0, y: 0, z: 0, w: 1}
    localScale: {x: 1, y: 1, z: 1}
  - path: Bones/Ctrl/Body_0/Leg_L_0
    localPosition: {x: 0.4239775, y: -0.5154388, z: 0}
    localRotation: {x: 0, y: 0, z: -0.99144465, w: -0.13052775}
    localScale: {x: 2.0121374, y: 2.0121355, z: 2.0121357}
  - path: Bones/Ctrl/Body_0/Leg_L_0/Leg_L_1
    localPosition: {x: 1.0000001, y: -0.00000007964711, z: 0}
    localRotation: {x: 0, y: 0, z: 0.3744399, w: 0.9272512}
    localScale: {x: 1.02, y: 1.0200002, z: 1.0200002}
  - path: Bones/Ctrl/Body_0/Leg_L_0/Leg_L_1/Foot_L
    localPosition: {x: 1.0000002, y: -0.000000058435916, z: 0}
    localRotation: {x: 0, y: 0, z: -0.16066262, w: 0.9870094}
    localScale: {x: 0.36889255, y: 0.36889225, z: 0.36889225}
  - path: Bones/Ctrl/Body_0/Leg_R_0
    localPosition: {x: -0.17232743, y: 0.41320324, z: 0}
    localRotation: {x: 0, y: 0, z: 0.091869175, w: 0.9957711}
    localScale: {x: 1.0807887, y: 1.0807879, z: 1.0807881}
  - path: Bones/Ctrl/Body_0/Leg_R_0/Leg_R_1
    localPosition: {x: 0.9999999, y: 0, z: 0}
    localRotation: {x: 0, y: 0, z: 0.9930529, w: 0.11766881}
    localScale: {x: 1.9621638, y: 1.9621643, z: 1.9621643}
  - path: Bones/Ctrl/Body_0/Leg_R_0/Leg_R_1/Foot_R
    localPosition: {x: 1.0000002, y: 0.00000009113097, z: 0}
    localRotation: {x: 0, y: 0, z: 0.9979971, w: 0.06326021}
    localScale: {x: 0.29151297, y: 0.2915131, z: 0.2915131}
  - path: Bones/Ctrl/Body_0/Leg_R_0/Leg_R_1/Foot_R/Crow_L
    localPosition: {x: 1.0280977, y: -0.30728346, z: 0}
    localRotation: {x: -0, y: -0, z: 0.08680624, w: -0.99622524}
    localScale: {x: 0.4714284, y: 0.47142807, z: 0.47142804}
  - path: Bones/Ctrl/Body_0/Leg_R_0/Leg_R_1/Foot_R/Crow_R
    localPosition: {x: 0.93321806, y: 0.3281794, z: 0}
    localRotation: {x: -0, y: -0, z: 0.042926595, w: -0.9990783}
    localScale: {x: 0.5959486, y: 0.59594816, z: 0.5959479}
  - path: Bones/Ctrl/Body_0/Leg_R_0/Leg_R_1/Foot_R/Hoof
    localPosition: {x: -0.5350963, y: 0.08065386, z: 0}
    localRotation: {x: -0, y: -0, z: 0.25752166, w: -0.9662726}
    localScale: {x: 0.53111285, y: 0.5311126, z: 0.53111255}
  - path: Bones/Ctrl/Body_0/Tail_L_0
    localPosition: {x: 0.0041352515, y: -0.495316, z: 0}
    localRotation: {x: 0, y: 0, z: -0.9117142, w: 0.41082516}
    localScale: {x: 0.6721827, y: 0.67218274, z: 0.67218244}
  - path: Bones/Ctrl/Body_0/Tail_L_0/Tail_L_1
    localPosition: {x: 1.0000001, y: 0.00000014901161, z: 0}
    localRotation: {x: 0, y: 0, z: -0.07217475, w: 0.99739206}
    localScale: {x: 1, y: 1, z: 1}
  - path: Bones/Ctrl/Body_0/Tail_L_0/Tail_L_1/Tail_L_2
    localPosition: {x: 0.9999998, y: 0.000000045867637, z: 0}
    localRotation: {x: 0, y: 0, z: -0.0695514, w: 0.9975784}
    localScale: {x: 1, y: 1, z: 1}
  - path: Bones/Ctrl/Body_0/Tail_L_0/Tail_L_1/Tail_L_2/Tail_L_3
    localPosition: {x: 1.0208718, y: 0.0000006083865, z: 0}
    localRotation: {x: 0, y: 0, z: -0.08581835, w: 0.99631083}
    localScale: {x: 1, y: 1, z: 1}
  - path: Bones/Ctrl/Body_0/Tail_R_0
    localPosition: {x: 0.0377807, y: 0.51403826, z: 0}
    localRotation: {x: 0, y: 0, z: -0.9396926, w: -0.3420202}
    localScale: {x: 0.6721833, y: 0.67218316, z: 0.67218244}
  - path: Bones/Ctrl/Body_0/Tail_R_0/Tail_R_1
    localPosition: {x: 1.0000001, y: 0.00000014901161, z: 0}
    localRotation: {x: 0, y: 0, z: 0.000035907768, w: 1}
    localScale: {x: 1, y: 1, z: 1}
  - path: Bones/Ctrl/Body_0/Tail_R_0/Tail_R_1/Tail_R_2
    localPosition: {x: 0.9999998, y: 0.000000045867637, z: 0}
    localRotation: {x: 0, y: 0, z: 0.08715578, w: 0.9961947}
    localScale: {x: 1, y: 1, z: 1}
  - path: Bones/Ctrl/Body_0/Tail_R_0/Tail_R_1/Tail_R_2/Tail_R_3
    localPosition: {x: 1.0000002, y: 0.00000005052425, z: 0}
    localRotation: {x: 0, y: 0, z: 0.08715578, w: 0.9961947}
    localScale: {x: 1, y: 1, z: 1}
