%YAML 1.1
%TAG !u! tag:unity3d.com,2011:
--- !u!114 &11400000
MonoBehaviour:
  m_ObjectHideFlags: 0
  m_PrefabParentObject: {fileID: 0}
  m_PrefabInternal: {fileID: 0}
  m_GameObject: {fileID: 0}
  m_Enabled: 1
  m_EditorHideFlags: 0
  m_Script: {fileID: 11500000, guid: ae0543fe805424df99fe08ce744cbe49, type: 3}
  m_Name: pose
  m_EditorClassIdentifier: 
  m_PoseEntries:
  - path: Bone/bottom
    localPosition: {x: 0, y: -3.396222, z: 0}
    localRotation: {x: 0, y: 0, z: 0.7071068, w: 0.7071068}
    localScale: {x: 1, y: 1, z: 1}
  - path: Bone/bottom/r_foot
    localPosition: {x: 0.0675999, y: 1.0712878, z: 0}
    localRotation: {x: 0, y: 0, z: 0.9792785, w: 0.20251839}
    localScale: {x: 1, y: 1, z: 1}
  - path: Bone/bottom/l_foot
    localPosition: {x: 0.042686824, y: -0.9965457, z: 0}
    localRotation: {x: 0, y: 0, z: 0.98182374, w: -0.18979524}
    localScale: {x: 1.000001, y: 1.000001, z: 1}
  - path: Bone/bottom/body
    localPosition: {x: 2.3577678, y: -0, z: 0}
    localRotation: {x: 0, y: 0, z: 0.0065783537, w: 0.9999784}
    localScale: {x: 1, y: 1, z: 1}
  - path: Bone/bottom/body/Head
    localPosition: {x: 2.1600978, y: 0.0000010728836, z: 0}
    localRotation: {x: 0, y: 0, z: 0.00000028804115, w: 1}
    localScale: {x: 1, y: 1, z: 1}
  - path: Bone/bottom/body/r_eye
    localPosition: {x: 0.8219587, y: 0.8388397, z: 0}
    localRotation: {x: -0, y: -0, z: -0.0065784752, w: 0.9999784}
    localScale: {x: 1, y: 1, z: 1}
  - path: Bone/bottom/body/r_eye/r_eyeball
    localPosition: {x: 0.32880357, y: -0.11572358, z: 0}
    localRotation: {x: 0, y: 0, z: 0, w: 1}
    localScale: {x: 1, y: 1, z: 1}
  - path: Bone/bottom/body/l_eye
    localPosition: {x: 0.8202492, y: -1.0196491, z: 0}
    localRotation: {x: -0, y: -0, z: -0.0065784752, w: 0.9999784}
    localScale: {x: 1, y: 1, z: 1}
  - path: Bone/bottom/body/l_eye/l_eyeball
    localPosition: {x: 0.19236124, y: 0.1507584, z: 0}
    localRotation: {x: -0, y: -0, z: -0.000000059138962, w: 1}
    localScale: {x: 1, y: 1, z: 1}
