%YAML 1.1
%TAG !u! tag:unity3d.com,2011:
--- !u!114 &11400000
MonoBehaviour:
  m_ObjectHideFlags: 0
  m_CorrespondingSourceObject: {fileID: 0}
  m_PrefabInstance: {fileID: 0}
  m_PrefabAsset: {fileID: 0}
  m_GameObject: {fileID: 0}
  m_Enabled: 1
  m_EditorHideFlags: 0
  m_Script: {fileID: 11500000, guid: 5e1fc6a9dbb9a934f8d2086a350d2586, type: 3}
  m_Name: SymbolCatalog
  m_EditorClassIdentifier: 
  list:
  - style: 1
    name: CROSS_PLATFORM_INPUT
    description: 
  - style: 1
    name: DEVELOP
    description: "\u958B\u767A\u7528\u30D3\u30EB\u30C9"
