%YAML 1.1
%TAG !u! tag:unity3d.com,2011:
--- !u!114 &11400000
MonoBehaviour:
  m_ObjectHideFlags: 0
  m_CorrespondingSourceObject: {fileID: 0}
  m_PrefabInstance: {fileID: 0}
  m_PrefabAsset: {fileID: 0}
  m_GameObject: {fileID: 0}
  m_Enabled: 1
  m_EditorHideFlags: 0
  m_Script: {fileID: 11500000, guid: 6348e6e1fd1ff244c9c535e92ccae136, type: 3}
  m_Name: EventPrefMaster
  m_EditorClassIdentifier: 
  evtext:
  - {fileID: 1895989020049838, guid: 1924ee3d2cc708049aef06a1cf72eaaf, type: 3}
  evcharaview:
  - {fileID: 1677482822257062, guid: bae340258b176e9429a238450ab7ea02, type: 3}
  - {fileID: 1765768384058744, guid: 114e58fb1943e4368ae94cd2f6974841, type: 3}
  evcharaname:
  - {fileID: 1446905239389902, guid: 54b3fc81cda5cc742b369b7d0b57a1d9, type: 3}
  evchoiceobject:
  - {fileID: 1017885547950576, guid: 152c8940a3bec084495716e89bcecec3, type: 3}
  evifobject:
  - {fileID: 1017885547950576, guid: c6b3f842c5fe3b645b18fc20958cc402, type: 3}
  evcallobject:
  - {fileID: 1017885547950576, guid: 30abfc8fb2aa157428ec05e21b295abe, type: 3}
  evshop:
  - {fileID: 1764534779732242, guid: e5d50d376fa8bcf489612bc602d117f1, type: 3}
  evwarp:
  - {fileID: 1100166848390380, guid: 99dd1a8fa32db3f49aa86b731ad0cf0a, type: 3}
