﻿ローカルのファイルの場所,サーバーのファイルの場所,ローカル → サーバー,サーバー → ローカル
/Events/List.dat,/RPG/EVENT/Events/List.dat,OK,OK
/Events/EVH1.dat,/RPG/EVENT/Events/EVH1.dat,NOT,OK
/Events/EVH2.dat,/RPG/EVENT/Events/EVH2.dat,NOT,OK
/Events/EVH3.dat,/RPG/EVENT/Events/EVH3.dat,NOT,OK
/Events/EV_DEMO.dat,/RPG/EVENT/Events/EV_DEMO.dat,NOT,OK
/Variables/BattleChara.dat,/RPG/EVENT/Variables/BattleChara.dat,OK,OK
/Variables/CharaFace.dat,/RPG/EVENT/Variables/CharaFace.dat,OK,OK
/Variables/CharaName.dat,/RPG/EVENT/Variables/CharaName.dat,OK,OK
/Variables/CharaView.dat,/RPG/EVENT/Variables/CharaView.dat,NOT,OK
/Variables/CharaViewOut.dat,/RPG/EVENT/Variables/CharaViewOut.dat,NOT,OK
/Variables/charaX.dat,/RPG/EVENT/Variables/charaX.dat,NOT,OK
/Variables/charaY.dat,/RPG/EVENT/Variables/charaY.dat,NOT,OK
/Variables/Fields.dat,/RPG/EVENT/Variables/Fields.dat,NOT,OK
/Variables/flag.dat,/RPG/EVENT/Variables/flag.dat,NOT,OK
/Variables/variable.dat,/RPG/EVENT/Variables/variable.dat,NOT,OK
/Variables/EventTag.dat,/RPG/EVENT/Variables/EventTag.dat,NOT,OK
/Variables/PlayerVariableParam.dat,/RPG/EVENT/Variables/PlayerVariableParam.dat,OK,OK
/Variables/Status.dat,/RPG/EVENT/Variables/Status.dat,OK,OK
,/RPG/EVENT/bgm/listb.csv,NOT,NOT
,/RPG/EVENT/bgm/listb.xlsx,NOT,NOT
,/RPG/EVENT/se/lists.csv,NOT,NOT
,/RPG/EVENT/se/lists.xlsx,NOT,NOT
/Tables/BattleMessages.csv,/RPG/Table/CSV/BattleMessages.csv,OK,NOT
/Tables/ItemTablev2.csv,/RPG/Table/CSV/ItemTablev2.csv,OK,NOT
/Tables/PlayerData.csv,/RPG/Table/CSV/PlayerData.csv,OK,NOT
/Tables/SkillTable.csv,/RPG/Table/CSV/SkillTable.csv,OK,NOT
/Tables/WeponTable.csv,/RPG/Table/CSV/WeponTable.csv,OK,NOT
/Tables/EnemyGroup.csv,/RPG/Table/CSV/EnemyGroup.csv,OK,NOT
/Tables/Source/BattleMessages.xlsx,/RPG/Table/Source/BattleMessages.xlsx,OK,NOT
/Tables/Source/ItemTablev2.xlsx,/RPG/Table/Source/ItemTablev2.xlsx,OK,NOT
/Tables/Source/PlayerData.xlsx,/RPG/Table/Source/PlayerData.xlsx,OK,NOT
/Tables/Source/SkillTable.xlsx,/RPG/Table/Source/SkillTable.xlsx,OK,NOT
/Tables/Source/WeponTable.xlsx,/RPG/Table/Source/WeponTable.xlsx,OK,NOT
/Tables/Source/EnemyGroup.xlsx,/RPG/Table/Source/EnemyGroup.xlsx,OK,NOT
/MapData/Variable/H1.mdata,/RPG/MapData/Variable/H1.mdata,OK,NOT
/MapData/Variable/mapIcon.dat,/RPG/MapData/Variable/mapIcon.dat,OK,NOT
/MapData/Variable/enemyLayer.dat,/RPG/MapData/Variable/enemyLayer.dat,OK,NOT
/MapData/Variable/talk.dat,/RPG/MapData/Variable/talk.dat,OK,NOT
/MapData/Map/H1.txt,/RPG/MapData/Map/H1.txt,NOT,OK
/MapData/Map/H2.txt,/RPG/MapData/Map/H2.txt,NOT,OK
/MapData/Map/H3.txt,/RPG/MapData/Map/H3.txt,NOT,OK
