%YAML 1.1
%TAG !u! tag:unity3d.com,2011:
--- !u!114 &11400000
MonoBehaviour:
  m_ObjectHideFlags: 0
  m_PrefabParentObject: {fileID: 0}
  m_PrefabInternal: {fileID: 0}
  m_GameObject: {fileID: 0}
  m_Enabled: 1
  m_EditorHideFlags: 0
  m_Script: {fileID: 11500000, guid: c10c0be6d28fe4d539c4a39822fe301c, type: 3}
  m_Name: Shoulder_R
  m_EditorClassIdentifier: 
  m_ApiVersion: 3
  m_Sprite: {fileID: 21300114, guid: 5f3de904a45ad0f459f265b57a49d4a4, type: 3}
  m_SharedMesh: {fileID: 43663897600973662}
  m_SharedMaterials:
  - {fileID: 21186587276569462}
  pivotPoint: {x: 0, y: 0}
  texVertices: []
  edges: []
  holes: []
  indices: 
  bindPoses: []
--- !u!21 &21186587276569462
Material:
  serializedVersion: 6
  m_ObjectHideFlags: 1
  m_PrefabParentObject: {fileID: 0}
  m_PrefabInternal: {fileID: 0}
  m_Name: Shoulder_R_0
  m_Shader: {fileID: 10753, guid: 0000000000000000f000000000000000, type: 0}
  m_ShaderKeywords: 
  m_LightmapFlags: 4
  m_EnableInstancingVariants: 0
  m_DoubleSidedGI: 0
  m_CustomRenderQueue: -1
  stringTagMap: {}
  disabledShaderPasses: []
  m_SavedProperties:
    serializedVersion: 3
    m_TexEnvs:
    - _AlphaTex:
        m_Texture: {fileID: 0}
        m_Scale: {x: 1, y: 1}
        m_Offset: {x: 0, y: 0}
    - _MainTex:
        m_Texture: {fileID: 2800000, guid: 5f3de904a45ad0f459f265b57a49d4a4, type: 3}
        m_Scale: {x: 1, y: 1}
        m_Offset: {x: 0, y: 0}
    m_Floats:
    - PixelSnap: 0
    - _EnableExternalAlpha: 0
    m_Colors:
    - _Color: {r: 1, g: 1, b: 1, a: 1}
    - _Flip: {r: 1, g: 1, b: 1, a: 1}
    - _RendererColor: {r: 1, g: 1, b: 1, a: 1}
--- !u!43 &43663897600973662
Mesh:
  m_ObjectHideFlags: 1
  m_PrefabParentObject: {fileID: 0}
  m_PrefabInternal: {fileID: 0}
  m_Name: Shoulder_R
  serializedVersion: 8
  m_SubMeshes:
  - serializedVersion: 2
    firstByte: 0
    indexCount: 42
    topology: 0
    firstVertex: 0
    vertexCount: 14
    localAABB:
      m_Center: {x: 0, y: -0.00500001, z: 0}
      m_Extent: {x: 0.29, y: 0.265, z: 0}
  m_Shapes:
    vertices: []
    shapes: []
    channels: []
    fullWeights: []
  m_BindPose:
  - e00: -0.30735067
    e01: -0.84443945
    e02: 0
    e03: -0.018410707
    e10: 0.8444317
    e11: -0.30734807
    e12: 0
    e13: 0.023064384
    e20: 0
    e21: 0
    e22: 0.89862597
    e23: 0
    e30: 0
    e31: 0
    e32: 0
    e33: 1
  - e00: -0.00000006919567
    e01: 0.5804554
    e02: 0
    e03: 0.9614444
    e10: -0.5804552
    e11: -0.00000006919564
    e12: 0
    e13: 0.3478447
    e20: 0
    e21: 0
    e22: 0.5804551
    e23: 0
    e30: 0
    e31: 0
    e32: 0
    e33: 1
  m_BoneNameHashes: 
  m_RootBoneNameHash: 0
  m_MeshCompression: 0
  m_IsReadable: 1
  m_KeepVertices: 1
  m_KeepIndices: 1
  m_IndexBuffer: 06000b000a000b000500040002000d0006000b0004000300020006000a0005000b0006000d0002000100010000000d000c0008000d000c000900080007000d0008000d0000000c00070006000d000b0003000a00
  m_Skin:
  - weight[0]: 0.65999997
    weight[1]: 0.34
    weight[2]: 0
    weight[3]: 0
    boneIndex[0]: 1
    boneIndex[1]: 0
    boneIndex[2]: 0
    boneIndex[3]: 0
  - weight[0]: 0.65999997
    weight[1]: 0.34
    weight[2]: 0
    weight[3]: 0
    boneIndex[0]: 1
    boneIndex[1]: 0
    boneIndex[2]: 0
    boneIndex[3]: 0
  - weight[0]: 0.6
    weight[1]: 0.39999998
    weight[2]: 0
    weight[3]: 0
    boneIndex[0]: 0
    boneIndex[1]: 1
    boneIndex[2]: 0
    boneIndex[3]: 0
  - weight[0]: 0.6
    weight[1]: 0.39999998
    weight[2]: 0
    weight[3]: 0
    boneIndex[0]: 0
    boneIndex[1]: 1
    boneIndex[2]: 0
    boneIndex[3]: 0
  - weight[0]: 0.6
    weight[1]: 0.39999998
    weight[2]: 0
    weight[3]: 0
    boneIndex[0]: 0
    boneIndex[1]: 1
    boneIndex[2]: 0
    boneIndex[3]: 0
  - weight[0]: 0.6
    weight[1]: 0.39999998
    weight[2]: 0
    weight[3]: 0
    boneIndex[0]: 0
    boneIndex[1]: 1
    boneIndex[2]: 0
    boneIndex[3]: 0
  - weight[0]: 0.6
    weight[1]: 0.39999998
    weight[2]: 0
    weight[3]: 0
    boneIndex[0]: 0
    boneIndex[1]: 1
    boneIndex[2]: 0
    boneIndex[3]: 0
  - weight[0]: 1
    weight[1]: 0
    weight[2]: 0
    weight[3]: 0
    boneIndex[0]: 0
    boneIndex[1]: 0
    boneIndex[2]: 0
    boneIndex[3]: 0
  - weight[0]: 1
    weight[1]: 0
    weight[2]: 0
    weight[3]: 0
    boneIndex[0]: 1
    boneIndex[1]: 0
    boneIndex[2]: 0
    boneIndex[3]: 0
  - weight[0]: 1
    weight[1]: 0
    weight[2]: 0
    weight[3]: 0
    boneIndex[0]: 1
    boneIndex[1]: 0
    boneIndex[2]: 0
    boneIndex[3]: 0
  - weight[0]: 0.6
    weight[1]: 0.39999998
    weight[2]: 0
    weight[3]: 0
    boneIndex[0]: 0
    boneIndex[1]: 1
    boneIndex[2]: 0
    boneIndex[3]: 0
  - weight[0]: 0.6
    weight[1]: 0.39999998
    weight[2]: 0
    weight[3]: 0
    boneIndex[0]: 0
    boneIndex[1]: 1
    boneIndex[2]: 0
    boneIndex[3]: 0
  - weight[0]: 0.90999997
    weight[1]: 0.09000003
    weight[2]: 0
    weight[3]: 0
    boneIndex[0]: 1
    boneIndex[1]: 0
    boneIndex[2]: 0
    boneIndex[3]: 0
  - weight[0]: 0.65999997
    weight[1]: 0.34
    weight[2]: 0
    weight[3]: 0
    boneIndex[0]: 1
    boneIndex[1]: 0
    boneIndex[2]: 0
    boneIndex[3]: 0
  m_VertexData:
    m_CurrentChannels: 11
    m_VertexCount: 14
    m_Channels:
    - stream: 0
      offset: 0
      format: 0
      dimension: 3
    - stream: 0
      offset: 12
      format: 0
      dimension: 3
    - stream: 0
      offset: 0
      format: 0
      dimension: 0
    - stream: 1
      offset: 0
      format: 0
      dimension: 2
    - stream: 0
      offset: 0
      format: 0
      dimension: 0
    - stream: 0
      offset: 0
      format: 0
      dimension: 0
    - stream: 0
      offset: 0
      format: 0
      dimension: 0
    - stream: 0
      offset: 0
      format: 0
      dimension: 0
    m_DataSize: 448
    _typelessdata: ec5138beb81e853e000000000000000000000000000080bf295c8fbeec51b83d000000000000000000000000000080bfe17a94beec51b8bd000000000000000000000000000080bfe17a94beb81e85be000000000000000000000000000080bf295c8fbe713d8abe000000000000000000000000000080bfae4761be713d8abe000000000000000000000000000080bf9a9919be000080be000000000000000000000000000080bfcdcccc3d9a9919be000000000000000000000000000080bfe17a943eec51383e000000000000000000000000000080bfe17a943eb81e853e000000000000000000000000000080bfe17a94be333333be000000000000000000000000000080bfa42084be66c673be000000000000000000000000000080bfb81e053eb81e853e000000000000000000000000000080bf144e09bd0a67733d000000000000000000000000000080bf0000ec3e00c0883e0080e93e0080843e0040e93e0000803e0040e93e0080773e0080e93e0000773e0000eb3e0000773e00c0ec3e0000783e0000f33e00007d3e00c0f73e00c0863e00c0f73e00c0883e0040e93e00c07b3e680cea3ed098783e00c0f33e00c0883e76a9ef3e51bc833e
  m_CompressedMesh:
    m_Vertices:
      m_NumItems: 0
      m_Range: 0
      m_Start: 0
      m_Data: 
      m_BitSize: 0
    m_UV:
      m_NumItems: 0
      m_Range: 0
      m_Start: 0
      m_Data: 
      m_BitSize: 0
    m_Normals:
      m_NumItems: 0
      m_Range: 0
      m_Start: 0
      m_Data: 
      m_BitSize: 0
    m_Tangents:
      m_NumItems: 0
      m_Range: 0
      m_Start: 0
      m_Data: 
      m_BitSize: 0
    m_Weights:
      m_NumItems: 0
      m_Data: 
      m_BitSize: 0
    m_NormalSigns:
      m_NumItems: 0
      m_Data: 
      m_BitSize: 0
    m_TangentSigns:
      m_NumItems: 0
      m_Data: 
      m_BitSize: 0
    m_FloatColors:
      m_NumItems: 0
      m_Range: 0
      m_Start: 0
      m_Data: 
      m_BitSize: 0
    m_BoneIndices:
      m_NumItems: 0
      m_Data: 
      m_BitSize: 0
    m_Triangles:
      m_NumItems: 0
      m_Data: 
      m_BitSize: 0
    m_UVInfo: 0
  m_LocalAABB:
    m_Center: {x: 0, y: -0.00500001, z: 0}
    m_Extent: {x: 0.29, y: 0.265, z: 0}
  m_MeshUsageFlags: 0
  m_BakedConvexCollisionMesh: 
  m_BakedTriangleCollisionMesh: 
  m_MeshOptimized: 0
--- !u!114 &114960969570995026
MonoBehaviour:
  m_ObjectHideFlags: 1
  m_PrefabParentObject: {fileID: 0}
  m_PrefabInternal: {fileID: 0}
  m_GameObject: {fileID: 0}
  m_Enabled: 1
  m_EditorHideFlags: 0
  m_Script: {fileID: 11500000, guid: 9e715ea371f114f4a8d2584ad476634d, type: 3}
  m_Name: texture_00_57_Data
  m_EditorClassIdentifier: 
  m_PivotPoint: {x: 962, y: 521}
  m_Vertices:
  - {x: 944, y: 547}
  - {x: 934, y: 530}
  - {x: 933, y: 512}
  - {x: 933, y: 495}
  - {x: 934, y: 494}
  - {x: 940, y: 494}
  - {x: 947, y: 496}
  - {x: 972, y: 506}
  - {x: 991, y: 539}
  - {x: 991, y: 547}
  - {x: 933, y: 503.5}
  - {x: 936.19385, y: 497.19385}
  - {x: 975, y: 547}
  - {x: 958.6478, y: 526.94244}
  m_BoneWeights:
  - weight0: 0.65999997
    weight1: 0.34
    weight2: 0
    weight3: 0
    boneIndex0: 1
    boneIndex1: 0
    boneIndex2: -1
    boneIndex3: -1
  - weight0: 0.65999997
    weight1: 0.34
    weight2: 0
    weight3: 0
    boneIndex0: 1
    boneIndex1: 0
    boneIndex2: -1
    boneIndex3: -1
  - weight0: 0.39999998
    weight1: 0.6
    weight2: 0
    weight3: 0
    boneIndex0: 1
    boneIndex1: 0
    boneIndex2: -1
    boneIndex3: -1
  - weight0: 0.39999998
    weight1: 0.6
    weight2: 0
    weight3: 0
    boneIndex0: 1
    boneIndex1: 0
    boneIndex2: -1
    boneIndex3: -1
  - weight0: 0.39999998
    weight1: 0.6
    weight2: 0
    weight3: 0
    boneIndex0: 1
    boneIndex1: 0
    boneIndex2: -1
    boneIndex3: -1
  - weight0: 0.39999998
    weight1: 0.6
    weight2: 0
    weight3: 0
    boneIndex0: 1
    boneIndex1: 0
    boneIndex2: -1
    boneIndex3: -1
  - weight0: 0.39999998
    weight1: 0.6
    weight2: 0
    weight3: 0
    boneIndex0: 1
    boneIndex1: 0
    boneIndex2: -1
    boneIndex3: -1
  - weight0: 0
    weight1: 1
    weight2: 0
    weight3: 0
    boneIndex0: -1
    boneIndex1: 0
    boneIndex2: -1
    boneIndex3: -1
  - weight0: 1
    weight1: 0
    weight2: 0
    weight3: 0
    boneIndex0: 1
    boneIndex1: -1
    boneIndex2: -1
    boneIndex3: -1
  - weight0: 1
    weight1: 0
    weight2: 0
    weight3: 0
    boneIndex0: 1
    boneIndex1: -1
    boneIndex2: -1
    boneIndex3: -1
  - weight0: 0.39999998
    weight1: 0.6
    weight2: 0
    weight3: 0
    boneIndex0: 1
    boneIndex1: 0
    boneIndex2: -1
    boneIndex3: -1
  - weight0: 0.39999998
    weight1: 0.6
    weight2: 0
    weight3: 0
    boneIndex0: 1
    boneIndex1: 0
    boneIndex2: -1
    boneIndex3: -1
  - weight0: 0.90999997
    weight1: 0.09000003
    weight2: 0
    weight3: 0
    boneIndex0: 1
    boneIndex1: 0
    boneIndex2: -1
    boneIndex3: -1
  - weight0: 0.65999997
    weight1: 0.34
    weight2: 0
    weight3: 0
    boneIndex0: 1
    boneIndex1: 0
    boneIndex2: -1
    boneIndex3: -1
  m_Edges:
  - index1: 1
    index2: 0
  - index1: 2
    index2: 1
  - index1: 3
    index2: 10
  - index1: 4
    index2: 3
  - index1: 5
    index2: 4
  - index1: 6
    index2: 5
  - index1: 7
    index2: 6
  - index1: 8
    index2: 7
  - index1: 9
    index2: 8
  - index1: 0
    index2: 12
  - index1: 10
    index2: 2
  - index1: 12
    index2: 9
  m_Holes: []
  m_Indices: 060000000b0000000a0000000b0000000500000004000000020000000d000000060000000b000000040000000300000002000000060000000a000000050000000b000000060000000d000000020000000100000001000000000000000d0000000c000000080000000d0000000c0000000900000008000000070000000d000000080000000d000000000000000c00000007000000060000000d0000000b000000030000000a000000
  m_BindPoses:
  - bindPose:
      e00: -0.30735067
      e01: -0.84443945
      e02: 0
      e03: -0.018410707
      e10: 0.8444317
      e11: -0.30734807
      e12: 0
      e13: 0.023064384
      e20: 0
      e21: 0
      e22: 0.89862597
      e23: 0
      e30: 0
      e31: 0
      e32: 0
      e33: 1
    boneLength: 1
    path: Body_0/Body_1/Neck/Arm_R_0
    name: Arm_R_0
    color: {r: 1, g: 0, b: 0, a: 1}
    zOrder: 0
  - bindPose:
      e00: -0.00000006919567
      e01: 0.5804554
      e02: 0
      e03: 0.9614444
      e10: -0.5804552
      e11: -0.00000006919564
      e12: 0
      e13: 0.3478447
      e20: 0
      e21: 0
      e22: 0.5804551
      e23: 0
      e30: 0
      e31: 0
      e32: 0
      e33: 1
    boneLength: 1.0000005
    path: Body_0/Body_1
    name: Body_1
    color: {r: 1, g: 0.75, b: 0, a: 1}
    zOrder: 0
  m_Blendshapes: []
