%YAML 1.1
%TAG !u! tag:unity3d.com,2011:
--- !u!114 &11400000
MonoBehaviour:
  m_ObjectHideFlags: 0
  m_PrefabParentObject: {fileID: 0}
  m_PrefabInternal: {fileID: 0}
  m_GameObject: {fileID: 0}
  m_Enabled: 1
  m_EditorHideFlags: 0
  m_Script: {fileID: 11500000, guid: c10c0be6d28fe4d539c4a39822fe301c, type: 3}
  m_Name: Dragonkids_1
  m_EditorClassIdentifier: 
  m_ApiVersion: 3
  m_Sprite: {fileID: 21300002, guid: ed89b5819861c5248b765f3247dc9965, type: 3}
  m_SharedMesh: {fileID: 43682908030860376}
  m_SharedMaterials:
  - {fileID: 21706790737789556}
  pivotPoint: {x: 0, y: 0}
  texVertices: []
  edges: []
  holes: []
  indices: 
  bindPoses: []
--- !u!21 &21706790737789556
Material:
  serializedVersion: 6
  m_ObjectHideFlags: 1
  m_PrefabParentObject: {fileID: 0}
  m_PrefabInternal: {fileID: 0}
  m_Name: Dragonkids_1_0
  m_Shader: {fileID: 10753, guid: 0000000000000000f000000000000000, type: 0}
  m_ShaderKeywords: 
  m_LightmapFlags: 4
  m_EnableInstancingVariants: 0
  m_DoubleSidedGI: 0
  m_CustomRenderQueue: -1
  stringTagMap: {}
  disabledShaderPasses: []
  m_SavedProperties:
    serializedVersion: 3
    m_TexEnvs:
    - _AlphaTex:
        m_Texture: {fileID: 0}
        m_Scale: {x: 1, y: 1}
        m_Offset: {x: 0, y: 0}
    - _MainTex:
        m_Texture: {fileID: 2800000, guid: ed89b5819861c5248b765f3247dc9965, type: 3}
        m_Scale: {x: 1, y: 1}
        m_Offset: {x: 0, y: 0}
    m_Floats:
    - PixelSnap: 0
    - _EnableExternalAlpha: 0
    m_Colors:
    - _Color: {r: 1, g: 1, b: 1, a: 1}
    - _Flip: {r: 1, g: 1, b: 1, a: 1}
    - _RendererColor: {r: 1, g: 1, b: 1, a: 1}
--- !u!43 &43682908030860376
Mesh:
  m_ObjectHideFlags: 1
  m_PrefabParentObject: {fileID: 0}
  m_PrefabInternal: {fileID: 0}
  m_Name: Dragonkids_1
  serializedVersion: 8
  m_SubMeshes:
  - serializedVersion: 2
    firstByte: 0
    indexCount: 30
    topology: 0
    firstVertex: 0
    vertexCount: 12
    localAABB:
      m_Center: {x: 0.043020487, y: -0.0076037645, z: 0}
      m_Extent: {x: 1.4251015, y: 1.4876038, z: 0}
  m_Shapes:
    vertices: []
    shapes: []
    channels: []
    fullWeights: []
  m_BindPose:
  - e00: -0.011626703
    e01: -0.9999324
    e02: 0
    e03: 1.0122336
    e10: 0.9999324
    e11: -0.011626703
    e12: 0
    e13: 0.25835145
    e20: 0
    e21: 0
    e22: 1
    e23: 0
    e30: 0
    e31: 0
    e32: 0
    e33: 1
  - e00: -0.011626703
    e01: -0.9999324
    e02: 0
    e03: -0.697767
    e10: 0.9999324
    e11: -0.011626703
    e12: 0
    e13: 0.25835145
    e20: 0
    e21: 0
    e22: 1
    e23: 0
    e30: 0
    e31: 0
    e32: 0
    e33: 1
  m_BoneNameHashes: 
  m_RootBoneNameHash: 0
  m_MeshCompression: 0
  m_IsReadable: 1
  m_KeepVertices: 1
  m_KeepIndices: 1
  m_IndexBuffer: 0900060005000800060009000a000400030004000a000b000a0009000b0007000100080006000800010000000a0002000a0003000200080009000a00
  m_Skin:
  - weight[0]: 1
    weight[1]: 0
    weight[2]: 0
    weight[3]: 0
    boneIndex[0]: 0
    boneIndex[1]: 0
    boneIndex[2]: 0
    boneIndex[3]: 0
  - weight[0]: 0.9811637
    weight[1]: 0.018836362
    weight[2]: 0
    weight[3]: 0
    boneIndex[0]: 1
    boneIndex[1]: 0
    boneIndex[2]: 0
    boneIndex[3]: 0
  - weight[0]: 1
    weight[1]: 0
    weight[2]: 0
    weight[3]: 0
    boneIndex[0]: 0
    boneIndex[1]: 0
    boneIndex[2]: 0
    boneIndex[3]: 0
  - weight[0]: 1
    weight[1]: 0
    weight[2]: 0
    weight[3]: 0
    boneIndex[0]: 0
    boneIndex[1]: 0
    boneIndex[2]: 0
    boneIndex[3]: 0
  - weight[0]: 0.9837741
    weight[1]: 0.016225817
    weight[2]: 0
    weight[3]: 0
    boneIndex[0]: 0
    boneIndex[1]: 1
    boneIndex[2]: 0
    boneIndex[3]: 0
  - weight[0]: 0.7622654
    weight[1]: 0.23773463
    weight[2]: 0
    weight[3]: 0
    boneIndex[0]: 1
    boneIndex[1]: 0
    boneIndex[2]: 0
    boneIndex[3]: 0
  - weight[0]: 1
    weight[1]: 0
    weight[2]: 0
    weight[3]: 0
    boneIndex[0]: 1
    boneIndex[1]: 0
    boneIndex[2]: 0
    boneIndex[3]: 0
  - weight[0]: 1
    weight[1]: 0
    weight[2]: 0
    weight[3]: 0
    boneIndex[0]: 1
    boneIndex[1]: 0
    boneIndex[2]: 0
    boneIndex[3]: 0
  - weight[0]: 1
    weight[1]: 0
    weight[2]: 0
    weight[3]: 0
    boneIndex[0]: 1
    boneIndex[1]: 0
    boneIndex[2]: 0
    boneIndex[3]: 0
  - weight[0]: 1
    weight[1]: 0
    weight[2]: 0
    weight[3]: 0
    boneIndex[0]: 1
    boneIndex[1]: 0
    boneIndex[2]: 0
    boneIndex[3]: 0
  - weight[0]: 1
    weight[1]: 0
    weight[2]: 0
    weight[3]: 0
    boneIndex[0]: 0
    boneIndex[1]: 0
    boneIndex[2]: 0
    boneIndex[3]: 0
  - weight[0]: 1
    weight[1]: 0
    weight[2]: 0
    weight[3]: 0
    boneIndex[0]: 0
    boneIndex[1]: 0
    boneIndex[2]: 0
    boneIndex[3]: 0
  m_VertexData:
    m_CurrentChannels: 11
    m_VertexCount: 12
    m_Channels:
    - stream: 0
      offset: 0
      format: 0
      dimension: 3
    - stream: 0
      offset: 12
      format: 0
      dimension: 3
    - stream: 0
      offset: 0
      format: 0
      dimension: 0
    - stream: 1
      offset: 0
      format: 0
      dimension: 2
    - stream: 0
      offset: 0
      format: 0
      dimension: 0
    - stream: 0
      offset: 0
      format: 0
      dimension: 0
    - stream: 0
      offset: 0
      format: 0
      dimension: 0
    - stream: 0
      offset: 0
      format: 0
      dimension: 0
    m_DataSize: 384
    _typelessdata: 52b89e3fa470bd3f000000000000000000000000000080bf6cebbb3ff662bfbf000000000000000000000000000080bf52b89ebea470bd3f000000000000000000000000000080bf000040bf3d0a973f000000000000000000000000000080bf295c8fbfae47e13e000000000000000000000000000080bf08e8b0bf769985bf000000000000000000000000000080bfa4709dbfa470bdbf000000000000000000000000000080bf0f0da83fc34675bf000000000000000000000000000080bfd7b78e3e296927bf000000000000000000000000000080bf7b731abfcd9f1fbf000000000000000000000000000080bfa4a6b53ed74dabbe000000000000000000000000000080bfa42b49bf1fbb9bbe000000000000000000000000000080bf0000063f00807b3ffbb30b3fac1e313f0080be3e00807b3f0080a83e0000743f0000963e0080613f5de5883e07683c3f0080903e0080313f8dd2073f178c3e3ff4efdb3ebb26463f72d5af3e65e9463f46bddf3eb3224e3f7ab5a63e5de54e3f
  m_CompressedMesh:
    m_Vertices:
      m_NumItems: 0
      m_Range: 0
      m_Start: 0
      m_Data: 
      m_BitSize: 0
    m_UV:
      m_NumItems: 0
      m_Range: 0
      m_Start: 0
      m_Data: 
      m_BitSize: 0
    m_Normals:
      m_NumItems: 0
      m_Range: 0
      m_Start: 0
      m_Data: 
      m_BitSize: 0
    m_Tangents:
      m_NumItems: 0
      m_Range: 0
      m_Start: 0
      m_Data: 
      m_BitSize: 0
    m_Weights:
      m_NumItems: 0
      m_Data: 
      m_BitSize: 0
    m_NormalSigns:
      m_NumItems: 0
      m_Data: 
      m_BitSize: 0
    m_TangentSigns:
      m_NumItems: 0
      m_Data: 
      m_BitSize: 0
    m_FloatColors:
      m_NumItems: 0
      m_Range: 0
      m_Start: 0
      m_Data: 
      m_BitSize: 0
    m_BoneIndices:
      m_NumItems: 0
      m_Data: 
      m_BitSize: 0
    m_Triangles:
      m_NumItems: 0
      m_Data: 
      m_BitSize: 0
    m_UVInfo: 0
  m_LocalAABB:
    m_Center: {x: 0.043020487, y: -0.0076037645, z: 0}
    m_Extent: {x: 1.4251015, y: 1.4876038, z: 0}
  m_MeshUsageFlags: 0
  m_BakedConvexCollisionMesh: 
  m_BakedTriangleCollisionMesh: 
  m_MeshOptimized: 0
--- !u!114 &114232822103268882
MonoBehaviour:
  m_ObjectHideFlags: 1
  m_PrefabParentObject: {fileID: 0}
  m_PrefabInternal: {fileID: 0}
  m_GameObject: {fileID: 0}
  m_Enabled: 1
  m_EditorHideFlags: 0
  m_Script: {fileID: 11500000, guid: 9e715ea371f114f4a8d2584ad476634d, type: 3}
  m_Name: Dragonkids_1_Data
  m_EditorClassIdentifier: 
  m_PivotPoint: {x: 412, y: 858}
  m_Vertices:
  - {x: 536, y: 1006}
  - {x: 558.8122, y: 708.47925}
  - {x: 381, y: 1006}
  - {x: 337, y: 976}
  - {x: 300, y: 902}
  - {x: 273.7919, y: 753.6254}
  - {x: 289, y: 710}
  - {x: 543.28986, y: 762.1889}
  - {x: 439.87463, y: 792.60516}
  - {x: 351.66754, y: 795.6468}
  - {x: 447.4787, y: 824.5422}
  - {x: 333.4178, y: 827.5838}
  m_BoneWeights:
  - weight0: 1
    weight1: 0
    weight2: 0
    weight3: 0
    boneIndex0: 0
    boneIndex1: -1
    boneIndex2: -1
    boneIndex3: -1
  - weight0: 0.9811637
    weight1: 0.018836362
    weight2: 0
    weight3: 0
    boneIndex0: 1
    boneIndex1: 0
    boneIndex2: -1
    boneIndex3: -1
  - weight0: 1
    weight1: 0
    weight2: 0
    weight3: 0
    boneIndex0: 0
    boneIndex1: -1
    boneIndex2: -1
    boneIndex3: -1
  - weight0: 1
    weight1: 0
    weight2: 0
    weight3: 0
    boneIndex0: 0
    boneIndex1: -1
    boneIndex2: -1
    boneIndex3: -1
  - weight0: 0.9837741
    weight1: 0.016225817
    weight2: 0
    weight3: 0
    boneIndex0: 0
    boneIndex1: 1
    boneIndex2: -1
    boneIndex3: -1
  - weight0: 0.7622654
    weight1: 0.23773463
    weight2: 0
    weight3: 0
    boneIndex0: 1
    boneIndex1: 0
    boneIndex2: -1
    boneIndex3: -1
  - weight0: 1
    weight1: 0
    weight2: 0
    weight3: 0
    boneIndex0: 1
    boneIndex1: -1
    boneIndex2: -1
    boneIndex3: -1
  - weight0: 1
    weight1: 0
    weight2: 0
    weight3: 0
    boneIndex0: 1
    boneIndex1: -1
    boneIndex2: -1
    boneIndex3: -1
  - weight0: 1
    weight1: 0
    weight2: 0
    weight3: 0
    boneIndex0: 1
    boneIndex1: -1
    boneIndex2: -1
    boneIndex3: -1
  - weight0: 1
    weight1: 0
    weight2: 0
    weight3: 0
    boneIndex0: 1
    boneIndex1: -1
    boneIndex2: -1
    boneIndex3: -1
  - weight0: 1
    weight1: 0
    weight2: 0
    weight3: 0
    boneIndex0: 0
    boneIndex1: -1
    boneIndex2: -1
    boneIndex3: -1
  - weight0: 1
    weight1: 0
    weight2: 0
    weight3: 0
    boneIndex0: 0
    boneIndex1: -1
    boneIndex2: -1
    boneIndex3: -1
  m_Edges:
  - index1: 6
    index2: 5
  - index1: 3
    index2: 4
  - index1: 2
    index2: 3
  - index1: 0
    index2: 2
  - index1: 6
    index2: 1
  - index1: 1
    index2: 7
  - index1: 7
    index2: 8
  - index1: 5
    index2: 9
  - index1: 0
    index2: 10
  - index1: 8
    index2: 10
  - index1: 4
    index2: 11
  - index1: 9
    index2: 11
  m_Holes: []
  m_Indices: 0900000006000000050000000800000006000000090000000a0000000400000003000000040000000a0000000b0000000a000000090000000b000000070000000100000008000000060000000800000001000000000000000a000000020000000a000000030000000200000008000000090000000a000000
  m_BindPoses:
  - bindPose:
      e00: -0.011626703
      e01: -0.9999324
      e02: 0
      e03: 1.0122336
      e10: 0.9999324
      e11: -0.011626703
      e12: 0
      e13: 0.25835145
      e20: 0
      e21: 0
      e22: 1
      e23: 0
      e30: 0
      e31: 0
      e32: 0
      e33: 1
    boneLength: 1.7100002
    path: l_foot
    name: l_foot
    color: {r: 1, g: 0, b: 0, a: 1}
    zOrder: 0
  - bindPose:
      e00: -0.011626703
      e01: -0.9999324
      e02: 0
      e03: -0.697767
      e10: 0.9999324
      e11: -0.011626703
      e12: 0
      e13: 0.25835145
      e20: 0
      e21: 0
      e22: 1
      e23: 0
      e30: 0
      e31: 0
      e32: 0
      e33: 1
    boneLength: 0.76
    path: l_foot/l_foot_clow
    name: l_foot_clow
    color: {r: 1, g: 0.75, b: 0, a: 1}
    zOrder: 0
  m_Blendshapes: []
